{
  "images" : [
    {
      "idiom" : "universal",
      "scale" : "1x",
      "filename" : "2014022402483969_easyicon_net_72.png"
    },
    {
      "idiom" : "universal",
      "scale" : "2x",
      "filename" : "20140224024833995_easyicon_net_96.png"
    }
  ],
  "info" : {
    "version" : 1,
    "author" : "xcode"
  }
}